
Routing Table: 
R1 -> R1: R1, 0
R1 -> R0: R0, 15
R1 -> R2: R2, 5
R1 -> R6: R6, 50

Routing Table: 
R1 -> R1: R1, 0
R1 -> R0: R0, 15
R1 -> R2: R2, 5
R1 -> R6: R6, 50
R1 -> R3: R0, 30
R1 -> R4: R0, 115

Routing Table: 
R1 -> R1: R1, 0
R1 -> R0: R0, 15
R1 -> R2: R2, 5
R1 -> R6: R2, 15
R1 -> R3: R2, 15
R1 -> R4: R2, 10
R1 -> R5: R2, 20

Routing Table: 
R1 -> R1: R1, 0
R1 -> R0: R0, 15
R1 -> R2: R2, 5
R1 -> R6: R2, 15
R1 -> R3: R2, 15
R1 -> R4: R2, 10
R1 -> R5: R2, 20
R1 -> R7: R6, 60
R1 -> R8: R6, 55
R1 -> R9: R6, 65

Routing Table: 
R1 -> R1: R1, 0
R1 -> R0: R0, 15
R1 -> R2: R2, 5
R1 -> R6: R2, 15
R1 -> R3: R2, 15
R1 -> R4: R2, 10
R1 -> R5: R2, 19
R1 -> R7: R2, 25
R1 -> R8: R2, 20
R1 -> R9: R2, 30
9: Converged
